<svg width="87" height="87" viewBox="0 0 87 87" fill="none" xmlns="http://www.w3.org/2000/svg">
<path d="M53.766 53.2005C50.8581 55.545 47.2353 56.8235 43.5 56.8235C39.7647 56.8235 36.1419 55.545 33.234 53.2005C32.3457 52.4621 31.2004 52.1069 30.0501 52.2129C28.8999 52.319 27.8389 52.8776 27.1005 53.766C26.3622 54.6543 26.0069 55.7996 26.113 56.9499C26.219 58.1001 26.7777 59.1611 27.666 59.8995C32.1088 63.6083 37.7126 65.6399 43.5 65.6399C49.2874 65.6399 54.8912 63.6083 59.334 59.8995C60.2224 59.1611 60.781 58.1001 60.887 56.9499C60.9931 55.7996 60.6379 54.6543 59.8995 53.766C59.5339 53.3261 59.0852 52.9626 58.5792 52.6961C58.0731 52.4296 57.5194 52.2655 56.9499 52.2129C55.7996 52.1069 54.6544 52.4621 53.766 53.2005ZM30.45 39.15C31.3104 39.15 32.1514 38.8949 32.8667 38.4169C33.5821 37.9389 34.1396 37.2595 34.4689 36.4647C34.7981 35.6698 34.8843 34.7952 34.7164 33.9513C34.5486 33.1075 34.1343 32.3324 33.5259 31.7241C32.9176 31.1157 32.1425 30.7014 31.2987 30.5336C30.4548 30.3657 29.5802 30.4519 28.7853 30.7811C27.9905 31.1104 27.3111 31.6679 26.8331 32.3833C26.3551 33.0986 26.1 33.9396 26.1 34.8C26.1 35.9537 26.5583 37.0601 27.3741 37.8759C28.1899 38.6917 29.2963 39.15 30.45 39.15ZM56.55 30.45C55.6897 30.45 54.8486 30.7051 54.1333 31.1831C53.4179 31.6611 52.8604 32.3405 52.5311 33.1353C52.2019 33.9302 52.1157 34.8048 52.2836 35.6486C52.4514 36.4925 52.8657 37.2675 53.4741 37.8759C54.0825 38.4843 54.8575 38.8986 55.7014 39.0664C56.5452 39.2343 57.4198 39.1481 58.2147 38.8189C59.0095 38.4896 59.6889 37.9321 60.1669 37.2167C60.6449 36.5014 60.9 35.6603 60.9 34.8C60.9 33.6463 60.4417 32.5399 59.6259 31.7241C58.8101 30.9083 57.7037 30.45 56.55 30.45ZM43.5 0C34.8965 0 26.4862 2.55123 19.3327 7.33107C12.1792 12.1109 6.60367 18.9047 3.31126 26.8533C0.0188479 34.8018 -0.842597 43.5482 0.83586 51.9864C2.51432 60.4246 6.65729 68.1755 12.7409 74.2591C18.8245 80.3427 26.5754 84.4857 35.0136 86.1641C43.4518 87.8426 52.1982 86.9812 60.1467 83.6887C68.0953 80.3963 74.8891 74.8208 79.6689 67.6673C84.4488 60.5138 87 52.1035 87 43.5C87 37.7875 85.8748 32.1309 83.6888 26.8533C81.5027 21.5756 78.2985 16.7802 74.2591 12.7409C70.2198 8.7015 65.4244 5.49732 60.1467 3.31124C54.8691 1.12516 49.2125 0 43.5 0ZM43.5 78.3C36.6172 78.3 29.889 76.259 24.1662 72.4351C18.4433 68.6113 13.9829 63.1762 11.349 56.8174C8.71508 50.4585 8.02593 43.4614 9.36869 36.7108C10.7115 29.9603 14.0258 23.7595 18.8927 18.8927C23.7596 14.0258 29.9603 10.7114 36.7109 9.36867C43.4614 8.02591 50.4585 8.71506 56.8174 11.349C63.1763 13.9829 68.6113 18.4433 72.4351 24.1661C76.259 29.889 78.3 36.6172 78.3 43.5C78.3 52.7295 74.6336 61.581 68.1073 68.1073C61.5811 74.6336 52.7295 78.3 43.5 78.3Z" fill="#7C4188" fill-opacity="0.5"/>
</svg>
