<svg width="8" height="36" viewBox="0 0 8 36" fill="none" xmlns="http://www.w3.org/2000/svg">
<circle cx="4" cy="4" r="4" fill="#5C186A"/>
<circle cx="4" cy="18" r="4" fill="#5C186A"/>
<circle cx="4" cy="32" r="4" fill="#5C186A"/>
</svg>
